ID,FECHA,VALOR
C1,2018-01-01,29
C2,2018-01-02,80
C3,2018-01-03,11
C4,2018-01-04,94
C5,2018-01-05,97
C6,2018-01-06,24
C7,2018-01-07,22
C8,2018-01-08,26
C9,2018-01-09,55
C10,2018-01-10,97
C11,2018-01-11,27
C12,2018-01-12,9
C13,2018-01-13,78
C14,2018-01-14,0
C15,2018-01-15,31
C16,2018-01-16,82
C17,2018-01-17,97
C18,2018-01-18,85
C19,2018-01-19,19
C20,2018-01-20,59
C21,2018-01-21,19
C22,2018-01-22,37
C23,2018-01-23,21
C24,2018-01-24,14
C25,2018-01-25,3
C26,2018-01-26,89
C27,2018-01-27,20
C28,2018-01-28,0
C29,2018-01-29,65
C30,2018-01-30,11
C31,2018-01-31,44
C32,2018-02-01,98
C33,2018-02-02,48
C34,2018-02-03,34
C35,2018-02-04,61
C36,2018-02-05,9
C37,2018-02-06,3
C38,2018-02-07,71
C39,2018-02-08,96
C40,2018-02-09,69
C41,2018-02-10,77
C42,2018-02-11,17
C43,2018-02-12,29
C44,2018-02-13,41
C45,2018-02-14,86
C46,2018-02-15,22
C47,2018-02-16,14
C48,2018-02-17,77
C49,2018-02-18,99
C50,2018-02-19,92
C51,2018-02-20,32
C52,2018-02-21,77
C53,2018-02-22,81
C54,2018-02-23,53
C55,2018-02-24,83
C56,2018-02-25,34
C57,2018-02-26,81
C58,2018-02-27,34
C59,2018-02-28,55
C60,2018-03-01,15
C61,2018-03-02,79
C62,2018-03-03,74
C63,2018-03-04,33
C64,2018-03-05,97
C65,2018-03-06,30
C66,2018-03-07,48
C67,2018-03-08,56
C68,2018-03-09,37
C69,2018-03-10,98
C70,2018-03-11,41
C71,2018-03-12,14
C72,2018-03-13,19
C73,2018-03-14,82
C74,2018-03-15,59
C75,2018-03-16,64
C76,2018-03-17,9
C77,2018-03-18,47
C78,2018-03-19,15
C79,2018-03-20,98
C80,2018-03-21,3
C81,2018-03-22,71
C82,2018-03-23,12
C83,2018-03-24,15
C84,2018-03-25,52
C85,2018-03-26,78
C86,2018-03-27,85
C87,2018-03-28,79
C88,2018-03-29,28
C89,2018-03-30,49
C90,2018-03-31,76
C91,2018-04-01,52
C92,2018-04-02,69
C93,2018-04-03,38
C94,2018-04-04,97
C95,2018-04-05,13
C96,2018-04-06,84
C97,2018-04-07,59
C98,2018-04-08,23
C99,2018-04-09,76
C100,2018-04-10,6
